\boolfalse {citerequest}\boolfalse {citetracker}\boolfalse {pagetracker}\boolfalse {backtracker}\relax 
\babel@toc {ngerman}{}
\defcounter {refsection}{0}\relax 
\contentsline {chapter}{\nonumberline Tabellenverzeichnis}{I}{chapter*.2}% 
\defcounter {refsection}{0}\relax 
\contentsline {chapter}{\numberline {1}Zielbestimmung}{1}{chapter.1}% 
\defcounter {refsection}{0}\relax 
\contentsline {section}{\numberline {1.1}Musskriterien}{1}{section.1.1}% 
\defcounter {refsection}{0}\relax 
\contentsline {section}{\numberline {1.2}Sollkriterien}{2}{section.1.2}% 
\defcounter {refsection}{0}\relax 
\contentsline {section}{\numberline {1.3}Kannkriterien}{3}{section.1.3}% 
\defcounter {refsection}{0}\relax 
\contentsline {section}{\numberline {1.4}Abgrenzungskriterien}{3}{section.1.4}% 
\defcounter {refsection}{0}\relax 
\contentsline {chapter}{\numberline {2}Produkteinsatz}{4}{chapter.2}% 
\defcounter {refsection}{0}\relax 
\contentsline {section}{\numberline {2.1}Anwendungsbereiche}{4}{section.2.1}% 
\defcounter {refsection}{0}\relax 
\contentsline {section}{\numberline {2.2}Zielgruppen}{4}{section.2.2}% 
\defcounter {refsection}{0}\relax 
\contentsline {section}{\numberline {2.3}Betriebsbedingungen}{4}{section.2.3}% 
\defcounter {refsection}{0}\relax 
\contentsline {chapter}{\numberline {3}Produktumgebung}{5}{chapter.3}% 
\defcounter {refsection}{0}\relax 
\contentsline {section}{\numberline {3.1}Software}{5}{section.3.1}% 
\defcounter {refsection}{0}\relax 
\contentsline {section}{\numberline {3.2}Hardware}{5}{section.3.2}% 
\defcounter {refsection}{0}\relax 
\contentsline {chapter}{\numberline {4}Produktfunktionen}{6}{chapter.4}% 
\defcounter {refsection}{0}\relax 
\contentsline {chapter}{\numberline {5}Produktdaten}{7}{chapter.5}% 
\defcounter {refsection}{0}\relax 
\contentsline {section}{\numberline {5.1}Nicht persistente Daten}{7}{section.5.1}% 
\defcounter {refsection}{0}\relax 
\contentsline {section}{\numberline {5.2}Persistente Daten}{7}{section.5.2}% 
\defcounter {refsection}{0}\relax 
\contentsline {chapter}{\numberline {6}Produktleistungen}{8}{chapter.6}% 
\defcounter {refsection}{0}\relax 
\contentsline {chapter}{\numberline {7}Qualit\IeC {\"a}tsbestimmungen}{9}{chapter.7}% 
\defcounter {refsection}{0}\relax 
\contentsline {chapter}{\numberline {8}Testszenarien}{10}{chapter.8}% 
\defcounter {refsection}{0}\relax 
\contentsline {chapter}{\numberline {9}Entwicklungsumgebung}{12}{chapter.9}% 
\defcounter {refsection}{0}\relax 
\contentsline {section}{\numberline {9.1}Software}{12}{section.9.1}% 
\defcounter {refsection}{0}\relax 
\contentsline {section}{\numberline {9.2}Hardware}{12}{section.9.2}% 
