\relax 
\providecommand{\transparent@use}[1]{}
\providecommand\hyper@newdestlabel[2]{}
\providecommand\BKM@entry[2]{}
\providecommand*\new@tpo@label[2]{}
\catcode `"\active 
\AC@reset@newl@bel
\providecommand\HyperFirstAtBeginDocument{\AtBeginDocument}
\HyperFirstAtBeginDocument{\ifx\hyper@anchor\@undefined
\global\let\oldcontentsline\contentsline
\gdef\contentsline#1#2#3#4{\oldcontentsline{#1}{#2}{#3}}
\global\let\oldnewlabel\newlabel
\gdef\newlabel#1#2{\newlabelxx{#1}#2}
\gdef\newlabelxx#1#2#3#4#5#6{\oldnewlabel{#1}{{#2}{#3}}}
\AtEndDocument{\ifx\hyper@anchor\@undefined
\let\contentsline\oldcontentsline
\let\newlabel\oldnewlabel
\fi}
\fi}
\global\let\hyper@last\relax 
\gdef\HyperFirstAtBeginDocument#1{#1}
\providecommand\HyField@AuxAddToFields[1]{}
\providecommand\HyField@AuxAddToCoFields[2]{}
\bibstyle{biblatex}
\bibdata{pflichtenheft-blx,bibliographie}
\citation{biblatex-control}
\abx@aux@refcontext{nyt/global//global/global}
\gdef \LT@i {\LT@entry 
    {1}{253.3125pt}\LT@entry 
    {1}{173.6447pt}}
\providecommand\@newglossary[4]{}
\@newglossary{main}{glg}{gls}{glo}
\providecommand\@glsorder[1]{}
\providecommand\@istfilename[1]{}
\@istfilename{pflichtenheft.ist}
\@glsorder{word}
\@writefile{toc}{\boolfalse {citerequest}\boolfalse {citetracker}\boolfalse {pagetracker}\boolfalse {backtracker}\relax }
\@writefile{lof}{\boolfalse {citerequest}\boolfalse {citetracker}\boolfalse {pagetracker}\boolfalse {backtracker}\relax }
\@writefile{lot}{\boolfalse {citerequest}\boolfalse {citetracker}\boolfalse {pagetracker}\boolfalse {backtracker}\relax }
\babel@aux{ngerman}{}
\providecommand {\FN@pp@footnotehinttrue }{}
\providecommand {\FN@pp@footnote@aux }[2]{}
\FN@pp@footnotehinttrue 
\FN@pp@footnotehinttrue 
\FN@pp@footnotehinttrue 
\FN@pp@footnotehinttrue 
\BKM@entry{id=1,dest={636861707465722A2E32},srcline={96}}{546162656C6C656E7665727A656963686E6973}
\FN@pp@footnotehinttrue 
\FN@pp@footnotehinttrue 
\FN@pp@footnotehinttrue 
\FN@pp@footnotehinttrue 
\FN@pp@footnotehinttrue 
\FN@pp@footnotehinttrue 
\FN@pp@footnotehinttrue 
\@writefile{toc}{\defcounter {refsection}{0}\relax }\@writefile{toc}{\contentsline {chapter}{\nonumberline Tabellenverzeichnis}{I}{chapter*.2}\protected@file@percent }
\FN@pp@footnotehinttrue 
\BKM@entry{id=2,dest={636861707465722E31},srcline={3}}{31205A69656C62657374696D6D756E67}
\BKM@entry{id=3,dest={73656374696F6E2E312E31},srcline={25}}{312E31204D7573736B726974657269656E}
\FN@pp@footnotehinttrue 
\FN@pp@footnotehinttrue 
\FN@pp@footnotehinttrue 
\FN@pp@footnotehinttrue 
\@writefile{toc}{\defcounter {refsection}{0}\relax }\@writefile{toc}{\contentsline {chapter}{\numberline {1}Zielbestimmung}{1}{chapter.1}\protected@file@percent }
\@writefile{lof}{\defcounter {refsection}{0}\relax }\@writefile{lof}{\addvspace {10\p@ }}
\@writefile{lot}{\defcounter {refsection}{0}\relax }\@writefile{lot}{\addvspace {10\p@ }}
\@writefile{lol}{\defcounter {refsection}{0}\relax }\@writefile{lol}{\addvspace {10\p@ }}
\newlabel{cha:Zielbestimmung}{{1}{1}{Zielbestimmung}{chapter.1}{}}
\@writefile{toc}{\defcounter {refsection}{0}\relax }\@writefile{toc}{\contentsline {section}{\numberline {1.1}Musskriterien}{1}{section.1.1}\protected@file@percent }
\newlabel{sec:Musskriterien}{{1.1}{1}{Musskriterien}{section.1.1}{}}
\BKM@entry{id=4,dest={73656374696F6E2E312E32},srcline={55}}{312E3220536F6C6C6B726974657269656E}
\@writefile{toc}{\defcounter {refsection}{0}\relax }\@writefile{toc}{\contentsline {section}{\numberline {1.2}Sollkriterien}{2}{section.1.2}\protected@file@percent }
\newlabel{sec:Sollkriterien}{{1.2}{2}{Sollkriterien}{section.1.2}{}}
\BKM@entry{id=5,dest={73656374696F6E2E312E33},srcline={80}}{312E33204B616E6E6B726974657269656E}
\BKM@entry{id=6,dest={73656374696F6E2E312E34},srcline={104}}{312E342041626772656E7A756E67736B726974657269656E}
\@writefile{toc}{\defcounter {refsection}{0}\relax }\@writefile{toc}{\contentsline {section}{\numberline {1.3}Kannkriterien}{3}{section.1.3}\protected@file@percent }
\newlabel{sec:Kannkriterien}{{1.3}{3}{Kannkriterien}{section.1.3}{}}
\@writefile{toc}{\defcounter {refsection}{0}\relax }\@writefile{toc}{\contentsline {section}{\numberline {1.4}Abgrenzungskriterien}{3}{section.1.4}\protected@file@percent }
\newlabel{sec:Abgrenzungskriterien}{{1.4}{3}{Abgrenzungskriterien}{section.1.4}{}}
\FN@pp@footnotehinttrue 
\BKM@entry{id=7,dest={636861707465722E32},srcline={3}}{322050726F64756B7465696E7361747A}
\BKM@entry{id=8,dest={73656374696F6E2E322E31},srcline={5}}{322E3120416E77656E64756E67736265726569636865}
\BKM@entry{id=9,dest={73656374696F6E2E322E32},srcline={8}}{322E32205A69656C6772757070656E}
\BKM@entry{id=10,dest={73656374696F6E2E322E33},srcline={11}}{322E33204265747269656273626564696E67756E67656E}
\@writefile{toc}{\defcounter {refsection}{0}\relax }\@writefile{toc}{\contentsline {chapter}{\numberline {2}Produkteinsatz}{4}{chapter.2}\protected@file@percent }
\@writefile{lof}{\defcounter {refsection}{0}\relax }\@writefile{lof}{\addvspace {10\p@ }}
\@writefile{lot}{\defcounter {refsection}{0}\relax }\@writefile{lot}{\addvspace {10\p@ }}
\@writefile{lol}{\defcounter {refsection}{0}\relax }\@writefile{lol}{\addvspace {10\p@ }}
\newlabel{cha:Produkteinsatz}{{2}{4}{Produkteinsatz}{chapter.2}{}}
\@writefile{toc}{\defcounter {refsection}{0}\relax }\@writefile{toc}{\contentsline {section}{\numberline {2.1}Anwendungsbereiche}{4}{section.2.1}\protected@file@percent }
\newlabel{sec:Anwendungsbereiche}{{2.1}{4}{Anwendungsbereiche}{section.2.1}{}}
\@writefile{toc}{\defcounter {refsection}{0}\relax }\@writefile{toc}{\contentsline {section}{\numberline {2.2}Zielgruppen}{4}{section.2.2}\protected@file@percent }
\newlabel{sec:Zielgruppen}{{2.2}{4}{Zielgruppen}{section.2.2}{}}
\@writefile{toc}{\defcounter {refsection}{0}\relax }\@writefile{toc}{\contentsline {section}{\numberline {2.3}Betriebsbedingungen}{4}{section.2.3}\protected@file@percent }
\newlabel{sec:Betriebsbedingungen}{{2.3}{4}{Betriebsbedingungen}{section.2.3}{}}
\FN@pp@footnotehinttrue 
\BKM@entry{id=11,dest={636861707465722E33},srcline={3}}{332050726F64756B74756D676562756E67}
\BKM@entry{id=12,dest={73656374696F6E2E332E31},srcline={5}}{332E3120536F667477617265}
\BKM@entry{id=13,dest={73656374696F6E2E332E32},srcline={10}}{332E32204861726477617265}
\@writefile{toc}{\defcounter {refsection}{0}\relax }\@writefile{toc}{\contentsline {chapter}{\numberline {3}Produktumgebung}{5}{chapter.3}\protected@file@percent }
\@writefile{lof}{\defcounter {refsection}{0}\relax }\@writefile{lof}{\addvspace {10\p@ }}
\@writefile{lot}{\defcounter {refsection}{0}\relax }\@writefile{lot}{\addvspace {10\p@ }}
\@writefile{lol}{\defcounter {refsection}{0}\relax }\@writefile{lol}{\addvspace {10\p@ }}
\newlabel{cha:Produktumgebung}{{3}{5}{Produktumgebung}{chapter.3}{}}
\@writefile{toc}{\defcounter {refsection}{0}\relax }\@writefile{toc}{\contentsline {section}{\numberline {3.1}Software}{5}{section.3.1}\protected@file@percent }
\newlabel{sec:Software}{{3.1}{5}{Software}{section.3.1}{}}
\@writefile{toc}{\defcounter {refsection}{0}\relax }\@writefile{toc}{\contentsline {section}{\numberline {3.2}Hardware}{5}{section.3.2}\protected@file@percent }
\newlabel{sec:Hardware}{{3.2}{5}{Hardware}{section.3.2}{}}
\FN@pp@footnotehinttrue 
\BKM@entry{id=14,dest={636861707465722E34},srcline={3}}{342050726F64756B7466756E6B74696F6E656E}
\@writefile{toc}{\defcounter {refsection}{0}\relax }\@writefile{toc}{\contentsline {chapter}{\numberline {4}Produktfunktionen}{6}{chapter.4}\protected@file@percent }
\@writefile{lof}{\defcounter {refsection}{0}\relax }\@writefile{lof}{\addvspace {10\p@ }}
\@writefile{lot}{\defcounter {refsection}{0}\relax }\@writefile{lot}{\addvspace {10\p@ }}
\@writefile{lol}{\defcounter {refsection}{0}\relax }\@writefile{lol}{\addvspace {10\p@ }}
\newlabel{cha:Produktfunktionen}{{4}{6}{Produktfunktionen}{chapter.4}{}}
\FN@pp@footnotehinttrue 
\BKM@entry{id=15,dest={636861707465722E35},srcline={3}}{352050726F64756B74646174656E}
\BKM@entry{id=16,dest={73656374696F6E2E352E31},srcline={5}}{352E31204E696368742070657273697374656E746520446174656E}
\BKM@entry{id=17,dest={73656374696F6E2E352E32},srcline={11}}{352E322050657273697374656E746520446174656E}
\@writefile{toc}{\defcounter {refsection}{0}\relax }\@writefile{toc}{\contentsline {chapter}{\numberline {5}Produktdaten}{7}{chapter.5}\protected@file@percent }
\@writefile{lof}{\defcounter {refsection}{0}\relax }\@writefile{lof}{\addvspace {10\p@ }}
\@writefile{lot}{\defcounter {refsection}{0}\relax }\@writefile{lot}{\addvspace {10\p@ }}
\@writefile{lol}{\defcounter {refsection}{0}\relax }\@writefile{lol}{\addvspace {10\p@ }}
\newlabel{cha:Produktdaten}{{5}{7}{Produktdaten}{chapter.5}{}}
\@writefile{toc}{\defcounter {refsection}{0}\relax }\@writefile{toc}{\contentsline {section}{\numberline {5.1}Nicht persistente Daten}{7}{section.5.1}\protected@file@percent }
\newlabel{sec:Non-Persistente Daten}{{5.1}{7}{Nicht persistente Daten}{section.5.1}{}}
\@writefile{toc}{\defcounter {refsection}{0}\relax }\@writefile{toc}{\contentsline {section}{\numberline {5.2}Persistente Daten}{7}{section.5.2}\protected@file@percent }
\newlabel{sec:Persistente Daten}{{5.2}{7}{Persistente Daten}{section.5.2}{}}
\FN@pp@footnotehinttrue 
\BKM@entry{id=18,dest={636861707465722E36},srcline={3}}{362050726F64756B746C65697374756E67656E}
\@writefile{toc}{\defcounter {refsection}{0}\relax }\@writefile{toc}{\contentsline {chapter}{\numberline {6}Produktleistungen}{8}{chapter.6}\protected@file@percent }
\@writefile{lof}{\defcounter {refsection}{0}\relax }\@writefile{lof}{\addvspace {10\p@ }}
\@writefile{lot}{\defcounter {refsection}{0}\relax }\@writefile{lot}{\addvspace {10\p@ }}
\@writefile{lol}{\defcounter {refsection}{0}\relax }\@writefile{lol}{\addvspace {10\p@ }}
\newlabel{cha:Produktleistungen}{{6}{8}{Produktleistungen}{chapter.6}{}}
\FN@pp@footnotehinttrue 
\BKM@entry{id=19,dest={636861707465722E37},srcline={3}}{37205175616C69745C333434747362657374696D6D756E67656E}
\@writefile{toc}{\defcounter {refsection}{0}\relax }\@writefile{toc}{\contentsline {chapter}{\numberline {7}Qualit\IeC {\"a}tsbestimmungen}{9}{chapter.7}\protected@file@percent }
\@writefile{lof}{\defcounter {refsection}{0}\relax }\@writefile{lof}{\addvspace {10\p@ }}
\@writefile{lot}{\defcounter {refsection}{0}\relax }\@writefile{lot}{\addvspace {10\p@ }}
\@writefile{lol}{\defcounter {refsection}{0}\relax }\@writefile{lol}{\addvspace {10\p@ }}
\newlabel{cha:Qualit\IeC {\"a}tsbestimmungen}{{7}{9}{Qualitätsbestimmungen}{chapter.7}{}}
\@writefile{lot}{\defcounter {refsection}{0}\relax }\@writefile{lot}{\contentsline {table}{\numberline {7.1}{\ignorespaces Qualit\IeC {\"a}tsbestimmungen\relax }}{9}{table.caption.3}\protected@file@percent }
\providecommand*\caption@xref[2]{\@setref\relax\@undefined{#1}}
\newlabel{default}{{\caption@xref {default}{ on input line 20}}{9}{Qualitätsbestimmungen}{table.caption.3}{}}
\FN@pp@footnotehinttrue 
\BKM@entry{id=20,dest={636861707465722E38},srcline={3}}{382054657374737A656E617269656E}
\gdef \LT@ii {\LT@entry 
    {1}{91.93187pt}\LT@entry 
    {1}{198.2297pt}\LT@entry 
    {1}{198.2297pt}}
\@writefile{toc}{\defcounter {refsection}{0}\relax }\@writefile{toc}{\contentsline {chapter}{\numberline {8}Testszenarien}{10}{chapter.8}\protected@file@percent }
\@writefile{lof}{\defcounter {refsection}{0}\relax }\@writefile{lof}{\addvspace {10\p@ }}
\@writefile{lot}{\defcounter {refsection}{0}\relax }\@writefile{lot}{\addvspace {10\p@ }}
\@writefile{lol}{\defcounter {refsection}{0}\relax }\@writefile{lol}{\addvspace {10\p@ }}
\newlabel{cha:Testszenarien}{{8}{10}{Testszenarien}{chapter.8}{}}
\@writefile{lot}{\defcounter {refsection}{0}\relax }\@writefile{lot}{\contentsline {table}{\numberline {8.1}{\ignorespaces Testszenarien\relax }}{11}{table.8.1}\protected@file@percent }
\newlabel{default}{{8}{11}{Testszenarien}{table.8.1}{}}
\FN@pp@footnotehinttrue 
\BKM@entry{id=21,dest={636861707465722E39},srcline={3}}{3920456E747769636B6C756E6773756D676562756E67}
\BKM@entry{id=22,dest={73656374696F6E2E392E31},srcline={5}}{392E3120536F667477617265}
\BKM@entry{id=23,dest={73656374696F6E2E392E32},srcline={9}}{392E32204861726477617265}
\@writefile{toc}{\defcounter {refsection}{0}\relax }\@writefile{toc}{\contentsline {chapter}{\numberline {9}Entwicklungsumgebung}{12}{chapter.9}\protected@file@percent }
\@writefile{lof}{\defcounter {refsection}{0}\relax }\@writefile{lof}{\addvspace {10\p@ }}
\@writefile{lot}{\defcounter {refsection}{0}\relax }\@writefile{lot}{\addvspace {10\p@ }}
\@writefile{lol}{\defcounter {refsection}{0}\relax }\@writefile{lol}{\addvspace {10\p@ }}
\newlabel{cha:Entwicklungsumgebung}{{9}{12}{Entwicklungsumgebung}{chapter.9}{}}
\@writefile{toc}{\defcounter {refsection}{0}\relax }\@writefile{toc}{\contentsline {section}{\numberline {9.1}Software}{12}{section.9.1}\protected@file@percent }
\newlabel{sec:Software}{{9.1}{12}{Software}{section.9.1}{}}
\@writefile{toc}{\defcounter {refsection}{0}\relax }\@writefile{toc}{\contentsline {section}{\numberline {9.2}Hardware}{12}{section.9.2}\protected@file@percent }
\newlabel{sec:Hardware}{{9.2}{12}{Hardware}{section.9.2}{}}
\FN@pp@footnotehinttrue 
\newlabel{LastPage}{{}{}{}{page.}{}}
\xdef\lastpage@lastpage{}
\xdef\lastpage@lastpageHy{}
\global\@namedef{scr@dte@chapter@lastmaxnumwidth}{11.8799pt}
\global\@namedef{scr@dte@section@lastmaxnumwidth}{19.71382pt}
\global\@namedef{scr@dte@table@lastmaxnumwidth}{19.71382pt}
